{
  "description":"MATH: multiplication table [ from 2 * 2 up to 12 * 12 ]",
  "delimeter":" * ",
  "quizlist":[
	{
		"Q":"12" ,
		"A":[{"opt1":"3","opt2":"4"},
			 {"opt1":"6","opt2":"2"}]
	},
  {"Q":"14" ,"A":[{"opt1":"2","opt2":"7"}]},
  {"Q":"15" ,"A":[{"opt1":"3","opt2":"5"}]},
  {"Q":"16" ,"A":[{"opt1":"8","opt2":"2"},{"opt1":"4","opt2":"4"}]},
  {"Q":"18" ,"A":[{"opt1":"6","opt2":"3"},{"opt1":"9","opt2":"2"}]},
  {"Q":"20" ,"A":[{"opt1":"5","opt2":"4"},{"opt1":"2","opt2":"10"}]},
  {"Q":"21" ,"A":[{"opt1":"3","opt2":"7"}]},
  {"Q":"22" ,"A":[{"opt1":"11","opt2":"2"}]},
  {"Q":"24" ,"A":[{"opt1":"6","opt2":"4"},{"opt1":"3","opt2":"8"},{"opt1":"12","opt2":"2"}]},
  {"Q":"25" ,"A":[{"opt1":"5","opt2":"5"}]},
  {"Q":"27" ,"A":[{"opt1":"3","opt2":"9"}]},
  {"Q":"28" ,"A":[{"opt1":"7","opt2":"4"}]},
  {"Q":"30" ,"A":[{"opt1":"5","opt2":"6"},{"opt1":"3","opt2":"10"}]},
  {"Q":"32" ,"A":[{"opt1":"4","opt2":"8"}]},
  {"Q":"35" ,"A":[{"opt1":"5","opt2":"7"}]},
  {"Q":"36" ,"A":[{"opt1":"6","opt2":"6"},{"opt1":"4","opt2":"9"},{"opt1":"12","opt2":"3"}]},
  {"Q":"40" ,"A":[{"opt1":"10","opt2":"4"},{"opt1":"5","opt2":"8"}]},
  {"Q":"42" ,"A":[{"opt1":"6","opt2":"7"}]},
  {"Q":"44" ,"A":[{"opt1":"11","opt2":"4"}]},
  {"Q":"45" ,"A":[{"opt1":"5","opt2":"9"}]},
  {"Q":"48" ,"A":[{"opt1":"6","opt2":"8"},{"opt1":"12","opt2":"4"}]},
  {"Q":"49" ,"A":[{"opt1":"7","opt2":"7"}]},
  {"Q":"50" ,"A":[{"opt1":"5","opt2":"10"}]},
  {"Q":"54" ,"A":[{"opt1":"6","opt2":"9"}]},
  {"Q":"56" ,"A":[{"opt1":"7","opt2":"8"}]},
  {"Q":"60" ,"A":[{"opt1":"10","opt2":"6"},{"opt1":"12","opt2":"5"}]},
  {"Q":"63" ,"A":[{"opt1":"7","opt2":"9"}]},
  {"Q":"64" ,"A":[{"opt1":"8","opt2":"8"}]},
  {"Q":"66" ,"A":[{"opt1":"11","opt2":"6"}]},
  {"Q":"70" ,"A":[{"opt1":"10","opt2":"7"}]},
  {"Q":"72" ,"A":[{"opt1":"8","opt2":"9"},{"opt1":"12","opt2":"6"}]},
  {"Q":"80" ,"A":[{"opt1":"8","opt2":"10"},{"opt1":"5","opt2":"20"}]},
  {"Q":"81" ,"A":[{"opt1":"9","opt2":"9"}]},
  {"Q":"84" ,"A":[{"opt1":"12","opt2":"7"}]},
  {"Q":"88" ,"A":[{"opt1":"11","opt2":"8"}]},
  {"Q":"90" ,"A":[{"opt1":"9","opt2":"10"}]},
  {"Q":"96" ,"A":[{"opt1":"12","opt2":"8"}]},
  {"Q":"99" ,"A":[{"opt1":"11","opt2":"9"}]},
  {"Q":"110" ,"A":[{"opt1":"11","opt2":"10"}]},
  {"Q":"108" ,"A":[{"opt1":"12","opt2":"9"}]},
  {"Q":"121" ,"A":[{"opt1":"11","opt2":"11"}]},
  {"Q":"120" ,"A":[{"opt1":"12","opt2":"10"}]},
  {
	"Q":"144" ,
	"A":[{"opt1":"12","opt2":"12"}]
  }
  ]
}